{
    "__comment__": "Warning!! Do NOT check in changes to this file without also updating its counterpart file in server_build_scripts/patch_files",

    "ENVIRONMENTS":{

        "DEV": {
            "APP_DB": {
                "DB_SERVER": "spacetimi-db-dev.cklrbwjy2yyd.us-east-1.rds.amazonaws.com",
                "DB_USERNAME": "root",
                "DB_PASSWORD": "netapp1!",
                "DB_DATABASE": "bonda"
            }
        },

        "PROD": {
            "APP_DB": {
                "DB_SERVER": "na",
                "DB_USERNAME": "na",
                "DB_PASSWORD": "na",
                "DB_DATABASE": "na"
            }
        }
    }
}
